{
  "content": [
    {
      "path": "ContentInfo/quelcertoleo-2wa1-diamond-point/Thumbnail.jpg",
      "size": 32352,
      "date": 132543689179503922
    },
    {
      "path": "scenery/global/scenery/diamond-point-scenery.bgl",
      "size": 261456,
      "date": 132561586251336158
    },
    {
      "path": "scenery/global/scenery/DIAMOND-POINT-SHAPES.BGL",
      "size": 4203,
      "date": 132561586251704776
    }
  ]
}